{
  "project_info": {
    "project_number": "394395359835",
    "firebase_url": "https://jariya-kara-suu-default-rtdb.asia-southeast1.firebasedatabase.app",
    "project_id": "jariya-kara-suu",
    "storage_bucket": "jariya-kara-suu.appspot.com"
  },
  "client": [
    {
      "client_info": {
        "mobilesdk_app_id": "1:394395359835:android:65e4b5075640bbe501fd7e",
        "android_client_info": {
          "package_name": "com.projects.jaryia"
        }
      },
      "oauth_client": [
        {
          "client_id": "394395359835-d1oka931fhfgfjv3dap868mjcmpdm79d.apps.googleusercontent.com",
          "client_type": 3
        }
      ],
      "api_key": [
        {
          "current_key": "AIzaSyAp_8nWrek45yRgYKPb_dmiv_wZaXxPmSQ"
        }
      ],
      "services": {
        "appinvite_service": {
          "other_platform_oauth_client": [
            {
              "client_id": "394395359835-d1oka931fhfgfjv3dap868mjcmpdm79d.apps.googleusercontent.com",
              "client_type": 3
            }
          ]
        }
      }
    }
  ],
  "configuration_version": "1"
}